{"timestemp":1540270869226,"data":{"content":[{"id":"009cda28-f801-441e-ab54-beeeda9fd8d8","account":"lixiang","lastLoginTime":null,"userName":"lixiang@CDHT.GOV.CN","userGUID":"{380403e3-6364-4e7d-9d20-bf26d30c1611}","status":"STATUS_NORMAL","mechanism":[{"id":"1337e11f-c329-4e81-b43b-761177f62063","ldapName":"国际合作投服局国际合作处","parentNode":"{c9523cf1-b8e2-471e-9ae2-96d5ff77030d}|{8ea076a7-fb2c-4dba-9a07-b93f0c9ee773}","ldapGUID":"{90d67e72-e21a-432f-b9e1-70dd4dc2564b}","createDate":1538276704000,"modifyDate":1538276784000}],"role":null,"type":0,"createDate":1538276780000,"modifyDate":null,"preferenceType":null},{"id":"00a9e4cd-ad59-44b2-9376-3be8908e802b","account":"wangjiacong","lastLoginTime":null,"userName":"wangjiacong@CDHT.GOV.CN","userGUID":"{19cfd1a4-0095-4930-bfda-13a1aca5c45e}","status":"STATUS_NORMAL","mechanism":[{"id":"a3de83b7-266e-4791-b185-ceb5a2b614a6","ldapName":"环保与综合执法局城市综合执法四大队","parentNode":"{c9523cf1-b8e2-471e-9ae2-96d5ff77030d}|{bcb0f188-7b0c-4906-8992-c776129f8861}","ldapGUID":"{8ae612b4-e661-48b4-ae4e-c0a33d1d9ab5}","createDate":1538276813000,"modifyDate":null}],"role":null,"type":0,"createDate":1538276813000,"modifyDate":null,"preferenceType":null},{"id":"00abfe21-5f25-46fe-af0e-e53448cc91e0","account":"caijuan","lastLoginTime":null,"userName":"caijuan@cdht.gov.cn","userGUID":"{85859154-d78a-40f2-ac74-ec766af08903}","status":"STATUS_NORMAL","mechanism":[{"id":"8313548a-77c7-4e6d-a333-d7f43c158321","ldapName":"下属10个社区","parentNode":"{c9523cf1-b8e2-471e-9ae2-96d5ff77030d}|{edd89069-fe32-4be0-8d70-2edada0fc7eb}","ldapGUID":"{0b9432f1-4501-4deb-9208-0a53dc9cfd6a}","createDate":1538276761000,"modifyDate":1538276821000}],"role":null,"type":0,"createDate":1538276761000,"modifyDate":null,"preferenceType":null},{"id":"01177997-4278-40e0-8aeb-ab98aaddb2b2","account":"liwenjin","lastLoginTime":null,"userName":"liwenjin@cdht.gov.cn","userGUID":"{dad0d28b-0fe8-4ce2-a59a-d5a4177fd68b}","status":"STATUS_NORMAL","mechanism":[{"id":"81678341-c9a4-472f-984f-44e64f9ab71e","ldapName":"生物产业发展局招商促建处","parentNode":"{c9523cf1-b8e2-471e-9ae2-96d5ff77030d}|{72b6d12a-7a6d-4f2d-8061-78097cda6e81}","ldapGUID":"{9823b375-3beb-4e1b-a604-681466189510}","createDate":1538276723000,"modifyDate":1538276780000}],"role":null,"type":0,"createDate":1538276780000,"modifyDate":null,"preferenceType":null},{"id":"019fec73-c01e-40c4-976b-0dc268b1d356","account":"zhangxiaoning","lastLoginTime":null,"userName":"zhangxiaoning@cdht.gov.cn","userGUID":"{dcf4a746-070d-4104-842d-fac82809ad97}","status":"STATUS_NORMAL","mechanism":[{"id":"95a4a60d-d671-4c99-93e2-11c4ef41a400","ldapName":"芳草就业和社会保障服务中心","parentNode":"{c9523cf1-b8e2-471e-9ae2-96d5ff77030d}|{2f1236c0-43b7-4d0c-87cf-6891b3a92a4f}","ldapGUID":"{5b8cee69-7c35-465f-9568-0e1ea3313941}","createDate":1538276736000,"modifyDate":1538276775000}],"role":null,"type":0,"createDate":1538276754000,"modifyDate":null,"preferenceType":null},{"id":"01bbe710-1d98-414d-8d14-fd260711df31","account":"feiyali","lastLoginTime":null,"userName":"feiyali@cdht.gov.cn","userGUID":"{06411c10-d260-4edf-bdd2-0e39d9006beb}","status":"STATUS_NORMAL","mechanism":[{"id":"62d36df2-0a2e-44b9-961d-21d1e6988975","ldapName":"财政金融局局领导","parentNode":"{c9523cf1-b8e2-471e-9ae2-96d5ff77030d}|{43b7a3fe-f53a-4890-bcb0-3747ba224e9e}","ldapGUID":"{380c234f-c1df-43eb-a226-fd1bc4274960}","createDate":1538276725000,"modifyDate":1538276746000}],"role":null,"type":0,"createDate":1538276746000,"modifyDate":null,"preferenceType":null},{"id":"01e85115-9f93-4584-ac0b-76954e1ae9ff","account":"niubo","lastLoginTime":null,"userName":"niubo@CDHT.GOV.CN","userGUID":"{482122c8-3ef2-4acd-8f8c-74f3ba02b101}","status":"STATUS_NORMAL","mechanism":[{"id":"3af279d5-9ae4-45ba-8481-029a38d0888f","ldapName":"环保与综合执法局局领导","parentNode":"{c9523cf1-b8e2-471e-9ae2-96d5ff77030d}|{bcb0f188-7b0c-4906-8992-c776129f8861}","ldapGUID":"{dc8e3dde-91dd-4476-9b08-beec3ab3f986}","createDate":1538276706000,"modifyDate":1538276822000}],"role":null,"type":0,"createDate":1538276822000,"modifyDate":null,"preferenceType":null},{"id":"026b1f23-5954-46e1-83a9-896db29b3050","account":"yuanjia","lastLoginTime":null,"userName":"yuanjia@cdht.gov.cn","userGUID":"{48d8c414-0adc-4a2c-89cf-e26c5326c394}","status":"STATUS_NORMAL","mechanism":[{"id":"108a202c-5dbb-40b7-88a7-5bdbc9c7de2b","ldapName":"社会治安综合治理办公室","parentNode":"{c9523cf1-b8e2-471e-9ae2-96d5ff77030d}|{edd89069-fe32-4be0-8d70-2edada0fc7eb}","ldapGUID":"{7b45a385-b5c2-48c3-bea6-8916871208fc}","createDate":1538276731000,"modifyDate":1538276826000}],"role":null,"type":0,"createDate":1538276739000,"modifyDate":null,"preferenceType":null},{"id":"0281ba55-99a8-4cc1-8ae8-ad6958e331d4","account":"cheli","lastLoginTime":null,"userName":"cheli@cdht.gov.cn","userGUID":"{003b9e74-d9ee-4177-992b-f825e7a5a93f}","status":"STATUS_NORMAL","mechanism":[{"id":"1565f6cf-e301-41b6-9fa1-20d945e818aa","ldapName":"合作街道办纪工委监察办公室","parentNode":"{c9523cf1-b8e2-471e-9ae2-96d5ff77030d}|{4ddf5eb9-1157-474f-86ed-93a1c76d500f}","ldapGUID":"{1b944740-0980-430e-9ce9-b4f636f0955b}","createDate":1538276799000,"modifyDate":1538276807000}],"role":null,"type":0,"createDate":1538276799000,"modifyDate":null,"preferenceType":null},{"id":"0290430a-39c2-441c-904d-9ecbf2514ccf","account":"zhangji","lastLoginTime":null,"userName":"zhangji@CDHT.GOV.CN","userGUID":"{7979d088-0999-4803-9a01-fc7875590ec2}","status":"STATUS_NORMAL","mechanism":[{"id":"28210668-420f-42ee-8a2d-d9750211bfc8","ldapName":"国际合作投服局项目三处","parentNode":"{c9523cf1-b8e2-471e-9ae2-96d5ff77030d}|{8ea076a7-fb2c-4dba-9a07-b93f0c9ee773}","ldapGUID":"{308791cb-b7d4-419a-97c5-0212a705436e}","createDate":1538276777000,"modifyDate":1538276796000}],"role":null,"type":0,"createDate":1538276780000,"modifyDate":null,"preferenceType":null},{"id":"03589c8b-8b36-4e5f-9c80-46e56e9aca8c","account":"tangyg","lastLoginTime":null,"userName":"tangyg@cdht.gov.cn","userGUID":"{4e83ebe0-cf07-4ecc-a145-c5aa0b56b537}","status":"STATUS_NORMAL","mechanism":[{"id":"4ccba831-cf61-44ef-ba14-cd7c8716d924","ldapName":"街道党工委领导","parentNode":"{c9523cf1-b8e2-471e-9ae2-96d5ff77030d}|{5c7f93a4-f32f-4e63-a495-6cacda0b8057}","ldapGUID":"{10cdd373-4496-4348-9957-3c9bbab3e947}","createDate":1538276732000,"modifyDate":1538276829000}],"role":null,"type":0,"createDate":1538276829000,"modifyDate":null,"preferenceType":null},{"id":"037f775b-d570-4af7-85a7-1fdd24a9cbfb","account":"fanxiaomei","lastLoginTime":null,"userName":"fanxiaomei@cdht.gov.cn","userGUID":"{4984ab48-4e36-496d-a6cd-4ed9d9dfbebe}","status":"STATUS_NORMAL","mechanism":[{"id":"bd5f3411-6a78-4b2e-bd34-1cf7810741d4","ldapName":"芳草执法中队","parentNode":"{c9523cf1-b8e2-471e-9ae2-96d5ff77030d}|{2f1236c0-43b7-4d0c-87cf-6891b3a92a4f}","ldapGUID":"{3c17a8f2-6a3f-46bc-af58-310049a60819}","createDate":1538276746000,"modifyDate":1538276825000}],"role":null,"type":0,"createDate":1538276755000,"modifyDate":null,"preferenceType":null},{"id":"038e8b51-f4c6-4d07-99d8-267f838dcdbf","account":"huangming","lastLoginTime":null,"userName":"huangming@cdht.gov.cn","userGUID":"{f8aa1f59-5dda-4cc1-86ef-31c147dbbb70}","status":"STATUS_NORMAL","mechanism":[{"id":"28737aff-8a05-47cb-8281-665c7f2cacb5","ldapName":"财政金融局国有资产管理处","parentNode":"{c9523cf1-b8e2-471e-9ae2-96d5ff77030d}|{43b7a3fe-f53a-4890-bcb0-3747ba224e9e}","ldapGUID":"{2715be98-a005-48b5-b5ef-b823c9427cf0}","createDate":1538276727000,"modifyDate":1538276760000}],"role":null,"type":0,"createDate":1538276761000,"modifyDate":null,"preferenceType":null},{"id":"039d847c-2404-4cf0-a7c8-028bcf49d143","account":"fanxinyi","lastLoginTime":null,"userName":"fanxinyi@cdht.gov.cn","userGUID":"{ed2dbbae-0fd4-4418-a9c9-c469bdfb633d}","status":"STATUS_NORMAL","mechanism":[{"id":"6d6717f4-a07b-4d25-9888-0f61345d2012","ldapName":"基层治理和社事局卫生与计生处","parentNode":"{c9523cf1-b8e2-471e-9ae2-96d5ff77030d}|{48c20aa0-7040-4750-9ab3-a6e936942623}","ldapGUID":"{131c4538-6053-4d60-ac8f-1ce8d18c7ece}","createDate":1538276706000,"modifyDate":1538276816000}],"role":null,"type":0,"createDate":1538276816000,"modifyDate":null,"preferenceType":null},{"id":"03aff669-6b36-40a4-a678-e40afc3282c7","account":"panxinchun","lastLoginTime":null,"userName":"panxinchun@cdht.gov.cn","userGUID":"{f19dc933-04bf-497a-8f0d-8e5510d29ded}","status":"STATUS_NORMAL","mechanism":[{"id":"1337e11f-c329-4e81-b43b-761177f62063","ldapName":"国际合作投服局国际合作处","parentNode":"{c9523cf1-b8e2-471e-9ae2-96d5ff77030d}|{8ea076a7-fb2c-4dba-9a07-b93f0c9ee773}","ldapGUID":"{90d67e72-e21a-432f-b9e1-70dd4dc2564b}","createDate":1538276704000,"modifyDate":1538276784000}],"role":null,"type":0,"createDate":1538276704000,"modifyDate":null,"preferenceType":null}],"last":false,"totalPages":72,"totalElements":1071,"numberOfElements":15,"sort":null,"first":true,"size":15,"number":0},"responseCode":"_200","errorMsg":null}